<?xml version="1.0" encoding="UTF-8" standalone="no"?>
<svg xmlns="http://www.w3.org/2000/svg" width="400" height="400" viewBox="13 13 80 80" version="1.1">
    <title>LyonJUG Logo</title>
    <desc>
        The logo for the LyonJUG project (https://lyonjug.org).
        Created by Clément Fuzier with Inkscape (https://inkscape.org).
        Optimized with SVGO (https://svgo.dev).
        Licensed under the Creative Commons Attribution-NonCommercial-ShareAlike 4.0 International License (https://creativecommons.org/licenses/by-nc-sa/4.0).
    </desc>
    <path fill="#e50043"
          d="M34.246 33.073c3.81 15.01-13.439 19.543-19.664 28.891-4.24 6.37 2.08 13.214 10.698 20.988-3.358-7.596-14.753-14.241.008-25.9 18.407-14.529 8.961-23.98 8.961-23.98z M47.67 51.497s-31.124 7.771-16.26 24.9c4.389 5.05-1.15 9.593-1.15 9.593s11.135-5.747 6.022-12.948c-4.777-6.712-8.44-10.047 11.388-21.545"/>
    <path fill="#007396"
          d="M52.916 13.23a39.687 39.687 0 0 0-19.968 5.445 34.194 34.194 0 0 1 2.248-.925c3.695-1.327 6.734-1.8 11.665-1.817 5.032-.017 7.642.35 11.658 1.642 1.306.42 2.413.725 2.46.678.047-.048-.511-.623-1.242-1.28-.866-.779-1.183-1.146-.777-1.174.316-.022 1.069.16 2.341.513 5.383 1.492 10.119 5.56 11.847 10.18.543 1.45 1.197 4.957.968 5.186-.07.07-.578-.103-1.13-.385-1.057-.539-5.317-1.848-5.998-1.842-.219.003.073.273.65.602 4.286 2.452 8.28 6.21 9.743 9.165.519 1.048.943 2.162.943 2.477 0 1.23.697 2.354 4.275 6.896l3.303 4.326c.209 1.056-.289 3.097-.697 4.215.156.156-1.242 2.242-1.83 2.73-.362.3-.39.246-.245-.478l.163-.816-1.26.784c-2.592 1.611-6.472 3.079-8.48 2.922-2.008-.157-4.113-1.372-4.771-1.74.354 1.186.996 1.97 1.743 2.356 1.379.713 3.29 1.63 8.176-.17 1.219-.45 3.24-1.29 3.375-1.244.135.046-.965 1.233-1.329 2.013-.615 1.32-.64 1.51-.35 2.736.449 1.892.226 4.36-.531 5.866-.57 1.135-3.333 4.035-3.845 4.035-.115 0-.266-.577-.334-1.283-.27-2.808-2.2-4.456-9.338-7.972-6.517-3.218-7.844-1.347-11.904-6.123l-.654-1.144c-.36-.629-.79-1.492-.957-1.917-.993-2.205-1.412-3.672-1.561-4.77-.426.263-1.307 1.992-1.476 3.815-.281 3.021.714 6.279 2.585 8.465 1.331 1.555 3.222 2.74 7.332 4.594 2.033.918 4.25 2.023 4.927 2.457 3.62 2.324 5.333 5.732 4.66 9.276-.293 1.545-1.208 3.691-1.964 4.608l-.49.592-.01-1.753c-.028-4.41-2.933-8.207-8.243-10.772-3.13-1.513-3.954-1.686-1.997-.419 6.09 3.944 5.1 12.294 3.702 14.705-1.399 2.41-8.677 3.598-13.187 3.373 2.254.623 4.647.749 5.804.746 21.919 0 39.688-17.768 39.688-39.687 0-21.919-17.769-39.688-39.688-39.688zm-.927 13.281a5.96 5.96 0 0 0-2.677.614c-2.235 1.082-3.126 2.96-3.49 7.35-.266 3.202-.692 4.87-1.553 6.08l-.591.829 1.011-.179c3.283-.579 5.879-1.909 7.255-3.719.467-.614.848-1.223.848-1.354 0-.312-2.462-.306-3.612.01l-.901.246c.705-1.789 1.325-2.39 3.611-4.234l1.16-.368c1.262-.398 4.858-.52 5.997-.205 1.098.305.874-.173-.921-1.969-2.037-2.036-4.128-3.083-6.137-3.102zM67.99 38.457c-.607 0-1.333.23-2.328.699-1.289.608-2.024.814-2.68.752l-.45-.043.293.349c.95 1.133 2.038 1.835 3.04 1.962.339.043.657.055.708.026.12-.07-.43-1.014-.805-1.386l-.295-.292c.844-.125 1.212-.021 2.428.448l.399.365c.433.396 1.278 1.75 1.41 2.258.126.49.26.299.551-.79.331-1.234.27-2.27-.17-3.047a2.638 2.638 0 0 0-.829-.891c-.399-.271-.8-.41-1.272-.41M33.321 21.166l-2.836.143-1.627.082a39.687 39.687 0 0 0-8.897 9.442c.466-.515.952-1.026 1.464-1.536 3.047-3.034 6.518-5.542 9.975-7.206z"/>
</svg>
